<svg width="69" height="64" viewBox="0 0 69 64" fill="none" xmlns="http://www.w3.org/2000/svg">
<path d="M57.8707 40.0643H61.2094C61.5045 40.0643 61.7876 40.1816 61.9963 40.3903C62.205 40.599 62.3223 40.8821 62.3223 41.1772V44.5159C62.3223 44.8111 62.205 45.0942 61.9963 45.3029C61.7876 45.5116 61.5045 45.6288 61.2094 45.6288H57.8707C57.5755 45.6288 57.2924 45.5116 57.0837 45.3029C56.875 45.0942 56.7578 44.8111 56.7578 44.5159V41.1772C56.7578 40.8821 56.875 40.599 57.0837 40.3903C57.2924 40.1816 57.5755 40.0643 57.8707 40.0643ZM58.9836 43.403H60.0965V42.2901H58.9836V43.403Z" fill="#FE5000"/>
<path d="M51.1929 40.0643H54.5316C54.8268 40.0643 55.1099 40.1816 55.3186 40.3903C55.5273 40.599 55.6445 40.8821 55.6445 41.1772C55.6445 41.4724 55.5273 41.7555 55.3186 41.9642C55.1099 42.1729 54.8268 42.2901 54.5316 42.2901H51.1929C50.8978 42.2901 50.6147 42.1729 50.406 41.9642C50.1973 41.7555 50.08 41.4724 50.08 41.1772C50.08 40.8821 50.1973 40.599 50.406 40.3903C50.6147 40.1816 50.8978 40.0643 51.1929 40.0643Z" fill="#FE5000"/>
<path d="M53.4187 43.403H54.5316C54.8268 43.403 55.1099 43.5202 55.3186 43.7289C55.5273 43.9376 55.6445 44.2207 55.6445 44.5159C55.6445 44.811 55.5273 45.0941 55.3186 45.3028C55.1099 45.5115 54.8268 45.6288 54.5316 45.6288H53.4187C53.1236 45.6288 52.8405 45.5115 52.6318 45.3028C52.4231 45.0941 52.3058 44.811 52.3058 44.5159C52.3058 44.2207 52.4231 43.9376 52.6318 43.7289C52.8405 43.5202 53.1236 43.403 53.4187 43.403Z" fill="#FE5000"/>
<path d="M51.1953 21.1451C51.1953 20.85 51.3125 20.5669 51.5212 20.3582C51.7299 20.1495 52.013 20.0322 52.3082 20.0322H55.6469C55.942 20.0322 56.2251 20.1495 56.4338 20.3582C56.6425 20.5669 56.7598 20.85 56.7598 21.1451V24.4838C56.7598 24.779 56.6425 25.062 56.4338 25.2708C56.2251 25.4795 55.942 25.5967 55.6469 25.5967H52.3082C52.013 25.5967 51.7299 25.4795 51.5212 25.2708C51.3125 25.062 51.1953 24.779 51.1953 24.4838V21.1451ZM53.4211 23.3709H54.534V22.258H53.4211V23.3709Z" fill="#FE5000"/>
<path d="M48.9672 22.258H45.6285C45.3333 22.258 45.0503 22.1408 44.8415 21.9321C44.6328 21.7234 44.5156 21.4403 44.5156 21.1451C44.5156 20.85 44.6328 20.5669 44.8415 20.3582C45.0503 20.1495 45.3333 20.0322 45.6285 20.0322H48.9672C49.2623 20.0322 49.5454 20.1495 49.7541 20.3582C49.9628 20.5669 50.0801 20.85 50.0801 21.1451C50.0801 21.4403 49.9628 21.7234 49.7541 21.9321C49.5454 22.1408 49.2623 22.258 48.9672 22.258Z" fill="#FE5000"/>
<path d="M48.9672 25.5966H47.8543C47.5591 25.5966 47.2761 25.4794 47.0673 25.2707C46.8586 25.062 46.7414 24.7789 46.7414 24.4837C46.7414 24.1886 46.8586 23.9055 47.0673 23.6968C47.2761 23.4881 47.5591 23.3708 47.8543 23.3708H48.9672C49.2623 23.3708 49.5454 23.4881 49.7541 23.6968C49.9628 23.9055 50.0801 24.1886 50.0801 24.4837C50.0801 24.7789 49.9628 25.062 49.7541 25.2707C49.5454 25.4794 49.2623 25.5966 48.9672 25.5966Z" fill="#FE5000"/>
<path d="M37.8394 40.0643H41.1781C41.4733 40.0643 41.7563 40.1816 41.9651 40.3903C42.1738 40.599 42.291 40.8821 42.291 41.1772V44.5159C42.291 44.8111 42.1738 45.0942 41.9651 45.3029C41.7563 45.5116 41.4733 45.6288 41.1781 45.6288H37.8394C37.5443 45.6288 37.2612 45.5116 37.0525 45.3029C36.8438 45.0942 36.7265 44.8111 36.7265 44.5159V41.1772C36.7265 40.8821 36.8438 40.599 37.0525 40.3903C37.2612 40.1816 37.5443 40.0643 37.8394 40.0643ZM38.9523 43.403H40.0652V42.2901H38.9523V43.403Z" fill="#FE5000"/>
<path d="M31.1617 40.0643H34.5004C34.7955 40.0643 35.0786 40.1816 35.2873 40.3903C35.496 40.599 35.6133 40.8821 35.6133 41.1772C35.6133 41.4724 35.496 41.7555 35.2873 41.9642C35.0786 42.1729 34.7955 42.2901 34.5004 42.2901H31.1617C30.8665 42.2901 30.5835 42.1729 30.3747 41.9642C30.166 41.7555 30.0488 41.4724 30.0488 41.1772C30.0488 40.8821 30.166 40.599 30.3747 40.3903C30.5835 40.1816 30.8665 40.0643 31.1617 40.0643Z" fill="#FE5000"/>
<path d="M33.3875 43.403H34.5004C34.7955 43.403 35.0786 43.5202 35.2873 43.7289C35.496 43.9376 35.6133 44.2207 35.6133 44.5159C35.6133 44.811 35.496 45.0941 35.2873 45.3028C35.0786 45.5115 34.7955 45.6288 34.5004 45.6288H33.3875C33.0923 45.6288 32.8093 45.5115 32.6005 45.3028C32.3918 45.0941 32.2746 44.811 32.2746 44.5159C32.2746 44.2207 32.3918 43.9376 32.6005 43.7289C32.8093 43.5202 33.0923 43.403 33.3875 43.403Z" fill="#FE5000"/>
<path d="M3.339 0H21.1454C21.4405 0 21.7236 0.117252 21.9323 0.325961C22.141 0.53467 22.2583 0.817739 22.2583 1.1129V46.7417H23.3712V28.9354C23.3719 28.3453 23.6067 27.7796 24.0239 27.3623C24.4412 26.9451 25.0069 26.7103 25.597 26.7096H37.8388V8.90319C37.8396 8.31311 38.0744 7.74742 38.4916 7.33016C38.9089 6.91291 39.4746 6.67816 40.0646 6.67739H57.871C58.4611 6.67816 59.0268 6.91291 59.444 7.33016C59.8613 7.74742 60.096 8.31311 60.0968 8.90319V26.7096H63.4355C64.0256 26.7103 64.5913 26.9451 65.0085 27.3623C65.4258 27.7796 65.6605 28.3453 65.6613 28.9354V46.7417H67.8871C68.1823 46.7417 68.4653 46.859 68.674 47.0677C68.8827 47.2764 69 47.5595 69 47.8546V52.3062C69 52.6014 68.8827 52.8845 68.674 53.0932C68.4653 53.3019 68.1823 53.4191 67.8871 53.4191H64.5442C65.4796 54.1192 66.1708 55.096 66.5199 56.211C66.8691 57.3259 66.8584 58.5225 66.4895 59.631C66.1205 60.7396 65.412 61.7039 64.4644 62.3872C63.5167 63.0706 62.378 63.4383 61.2097 63.4383C60.0414 63.4383 58.9027 63.0706 57.955 62.3872C57.0074 61.7039 56.2989 60.7396 55.9299 59.631C55.561 58.5225 55.5504 57.3259 55.8995 56.211C56.2486 55.096 56.9399 54.1192 57.8752 53.4191H27.8186C28.7539 54.1192 29.4451 55.096 29.7943 56.211C30.1434 57.3259 30.1328 58.5225 29.7638 59.631C29.3949 60.7396 28.6864 61.7039 27.7387 62.3872C26.7911 63.0706 25.6524 63.4383 24.4841 63.4383C23.3157 63.4383 22.177 63.0706 21.2294 62.3872C20.2817 61.7039 19.5732 60.7396 19.2043 59.631C18.8354 58.5225 18.8247 57.3259 19.1739 56.211C19.523 55.096 20.2142 54.1192 21.1495 53.4191H16.6938C16.3986 53.4191 16.1155 53.3019 15.9068 53.0932C15.6981 52.8845 15.5809 52.6014 15.5809 52.3062V6.67739H3.339C2.45352 6.67739 1.60431 6.32564 0.978188 5.69951C0.352058 5.07338 0.000305176 4.22417 0.000305176 3.3387C0.000305176 2.45322 0.352058 1.60401 0.978188 0.977881C1.60431 0.351754 2.45352 0 3.339 0ZM36.7259 28.9354H32.2744V34.6459L33.8825 33.5734C34.0655 33.4518 34.2804 33.387 34.5002 33.387C34.7199 33.387 34.9348 33.4518 35.1178 33.5734L36.7259 34.6459V28.9354ZM38.3633 37.7064C38.1859 37.8016 37.9859 37.8469 37.7847 37.8373C37.5836 37.8278 37.3888 37.7638 37.2212 37.6521L34.5002 35.8381L31.7791 37.6521C31.5961 37.7737 31.3812 37.8385 31.1615 37.8385C30.8665 37.838 30.5837 37.7206 30.3751 37.512C30.1665 37.3034 30.0491 37.0206 30.0486 36.7256V28.9354H25.597L25.5956 46.7417H43.4033V28.9354H38.9517V36.7256C38.9519 36.9271 38.8972 37.1249 38.7935 37.2976C38.6899 37.4704 38.5412 37.6117 38.3633 37.7064ZM51.1936 8.90319H46.742V14.6137L48.3502 13.5412C48.5332 13.4196 48.7481 13.3548 48.9678 13.3548C49.1876 13.3548 49.4024 13.4196 49.5855 13.5412L51.1936 14.6137V8.90319ZM57.871 8.90319H53.4194V16.6935C53.4191 16.8948 53.3643 17.0924 53.2607 17.265C53.1571 17.4377 53.0087 17.5791 52.8311 17.6741C52.6536 17.7691 52.4537 17.8143 52.2525 17.8048C52.0514 17.7952 51.8566 17.7314 51.6889 17.62L48.9678 15.8059L46.2468 17.62C46.0637 17.7415 45.8489 17.8064 45.6291 17.8064C45.3341 17.8058 45.0514 17.6884 44.8428 17.4798C44.6342 17.2712 44.5168 16.9885 44.5162 16.6935V8.90319H40.0646L40.0633 26.7096H57.871V8.90319ZM52.3065 28.9354V34.6459L53.9147 33.5734C54.0977 33.4518 54.3126 33.387 54.5323 33.387C54.7521 33.387 54.9669 33.4518 55.15 33.5734L56.7581 34.6459V28.9354H52.3065ZM63.4355 28.9354H58.9839V36.7256C58.9836 36.927 58.9288 37.1245 58.8252 37.2972C58.7216 37.4699 58.5731 37.6112 58.3956 37.7063C58.2181 37.8013 58.0182 37.8465 57.817 37.8369C57.6159 37.8274 57.4211 37.7635 57.2534 37.6521L54.5323 35.8381L51.8113 37.6521C51.6282 37.7737 51.4134 37.8385 51.1936 37.8385C50.8986 37.838 50.6159 37.7206 50.4073 37.512C50.1987 37.3034 50.0813 37.0206 50.0807 36.7256V28.9354H45.6291V46.7417H63.4355V28.9354ZM57.871 57.8707C57.871 58.531 58.0668 59.1765 58.4337 59.7256C58.8005 60.2746 59.322 60.7026 59.932 60.9553C60.5421 61.208 61.2134 61.2741 61.8611 61.1453C62.5087 61.0164 63.1036 60.6985 63.5705 60.2315C64.0375 59.7646 64.3554 59.1697 64.4843 58.5221C64.6131 57.8744 64.547 57.2031 64.2943 56.5931C64.0416 55.983 63.6136 55.4616 63.0646 55.0947C62.5155 54.7278 61.87 54.532 61.2097 54.532C60.3246 54.5332 59.4761 54.8853 58.8502 55.5112C58.2243 56.1371 57.8722 56.9856 57.871 57.8707ZM21.1454 57.8707C21.1454 58.531 21.3412 59.1765 21.708 59.7256C22.0749 60.2746 22.5963 60.7026 23.2064 60.9553C23.8165 61.208 24.4878 61.2741 25.1354 61.1453C25.7831 61.0164 26.378 60.6985 26.8449 60.2315C27.3118 59.7646 27.6298 59.1697 27.7586 58.5221C27.8874 57.8744 27.8213 57.2031 27.5686 56.5931C27.3159 55.983 26.888 55.4616 26.3389 55.0947C25.7899 54.7278 25.1444 54.532 24.4841 54.532C23.5989 54.5332 22.7504 54.8853 22.1246 55.5112C21.4987 56.1371 21.1465 56.9856 21.1454 57.8707ZM17.8067 51.1933H66.7742V48.9675H21.1454C20.8502 48.9675 20.5671 48.8503 20.3584 48.6416C20.1497 48.4329 20.0325 48.1498 20.0325 47.8546V2.2258H17.8067V51.1933ZM3.339 4.45159H15.5809V2.2258H3.339C3.04384 2.2258 2.76077 2.34305 2.55206 2.55176C2.34335 2.76047 2.2261 3.04354 2.2261 3.3387C2.2261 3.63385 2.34335 3.91692 2.55206 4.12563C2.76077 4.33434 3.04384 4.45159 3.339 4.45159Z" fill="#FE5000"/>
</svg>
